%FSLAX35Y35*%
%MOIN*%
G04 EasyPC Gerber Version 18.0.9 Build 3640 *
%ADD75O,0.07000X0.12000*%
%ADD101R,0.07000X0.07000*%
%ADD74C,0.07000*%
%ADD102C,0.07000*%
%ADD100C,0.07299*%
%ADD27C,0.11000*%
%ADD73C,0.12811*%
%ADD99C,0.20685*%
X0Y0D02*
D02*
D27*
X272061Y83350D03*
Y103350D03*
X355811Y137100D03*
X435811D03*
X437061Y13350D03*
Y33350D03*
Y53350D03*
Y73350D03*
D02*
D73*
X84561Y18350D03*
Y38350D03*
Y78350D03*
Y98350D03*
X224561Y18350D03*
Y38350D03*
Y58350D03*
Y78350D03*
Y98350D03*
D02*
D74*
X252061Y160850D03*
X262061Y150850D03*
Y170850D03*
D02*
D75*
X144561Y147100D03*
Y177100D03*
X154561Y147100D03*
Y177100D03*
X164561Y147100D03*
Y177100D03*
X174561Y147100D03*
Y177100D03*
X184561Y147100D03*
Y177100D03*
D02*
D99*
X14561Y32100D03*
Y57100D03*
Y82100D03*
X38311Y25850D03*
Y104600D03*
X473311Y25850D03*
Y104600D03*
D02*
D100*
X262061Y160850D03*
D02*
D101*
X12061Y114600D03*
Y124600D03*
Y134600D03*
Y144600D03*
Y154600D03*
Y164600D03*
Y174600D03*
Y184600D03*
X293311Y149600D03*
Y179600D03*
X303311Y149600D03*
Y179600D03*
X313311Y149600D03*
Y179600D03*
X323311Y149600D03*
Y179600D03*
D02*
D102*
X24561Y128350D03*
Y148350D03*
X65811Y154600D03*
X98311Y164600D03*
Y184600D03*
X105811Y128350D03*
Y154600D03*
X113311Y120850D03*
Y135850D03*
X120811Y167100D03*
Y182100D03*
X127061Y120850D03*
Y150850D03*
X135811Y119600D03*
X145811Y129600D03*
X165811D03*
X175811Y119600D03*
X184561D03*
Y129600D03*
X198311Y138350D03*
Y178350D03*
X208311Y138350D03*
Y178350D03*
X219561Y158350D03*
Y178350D03*
X224561Y119600D03*
Y129600D03*
X230811Y139600D03*
Y179600D03*
X240811Y142100D03*
Y182100D03*
X242061Y119600D03*
Y129600D03*
X248311Y139600D03*
X268311D03*
X277061D03*
Y179600D03*
X282061Y119600D03*
Y129600D03*
X290811Y119600D03*
X303311Y132100D03*
X310811Y119600D03*
X323311D03*
X343311D03*
Y132100D03*
X350811Y169600D03*
Y184600D03*
X375811Y168350D03*
Y188350D03*
X388311Y168350D03*
Y188350D03*
X412061Y169600D03*
Y184600D03*
X0Y0D02*
M02*
