G81
M48
INCH
T1C000.02400
T2C000.03000
T3C000.03200
T4C000.03500
T5C000.06299
%
T001
X00104561Y00088350
X00120811Y00108350
X00120811Y00144600
X00135811Y00078350
X00208311Y00108350
X00367061Y00137100
T002
X00262061Y00160850
X00272061Y00083350
X00272061Y00103350
X00355811Y00137100
X00435811Y00137100
X00437061Y00013350
X00437061Y00033350
X00437061Y00053350
X00437061Y00073350
T003
X00024561Y00128350
X00024561Y00148350
X00065811Y00154600
X00098311Y00164600
X00098311Y00184600
X00105811Y00128350
X00105811Y00154600
X00113311Y00120850
X00113311Y00135850
X00120811Y00167100
X00120811Y00182100
X00127061Y00120850
X00127061Y00150850
X00135811Y00119600
X00144561Y00147100
X00144561Y00177100
X00145811Y00129600
X00154561Y00147100
X00154561Y00177100
X00164561Y00147100
X00164561Y00177100
X00165811Y00129600
X00174561Y00147100
X00174561Y00177100
X00175811Y00119600
X00184561Y00119600
X00184561Y00129600
X00184561Y00147100
X00184561Y00177100
X00198311Y00138350
X00198311Y00178350
X00208311Y00138350
X00208311Y00178350
X00219561Y00158350
X00219561Y00178350
X00224561Y00119600
X00224561Y00129600
X00230811Y00139600
X00230811Y00179600
X00240811Y00142100
X00240811Y00182100
X00242061Y00119600
X00242061Y00129600
X00248311Y00139600
X00252061Y00160850
X00262061Y00150850
X00262061Y00170850
X00268311Y00139600
X00277061Y00139600
X00277061Y00179600
X00282061Y00119600
X00282061Y00129600
X00290811Y00119600
X00303311Y00132100
X00310811Y00119600
X00323311Y00119600
X00343311Y00119600
X00343311Y00132100
X00350811Y00169600
X00350811Y00184600
X00375811Y00168350
X00375811Y00188350
X00388311Y00168350
X00388311Y00188350
X00412061Y00169600
X00412061Y00184600
T004
X00012061Y00114600
X00012061Y00124600
X00012061Y00134600
X00012061Y00144600
X00012061Y00154600
X00012061Y00164600
X00012061Y00174600
X00012061Y00184600
X00293311Y00149600
X00293311Y00179600
X00303311Y00149600
X00303311Y00179600
X00313311Y00149600
X00313311Y00179600
X00323311Y00149600
X00323311Y00179600
T005
X00084561Y00018350
X00084561Y00038350
X00084561Y00078350
X00084561Y00098350
X00224561Y00018350
X00224561Y00038350
X00224561Y00058350
X00224561Y00078350
X00224561Y00098350
M30
