G81
M48
INCH
T1C000.03200
T2C000.03500
T3C000.03937
T4C000.04000
T5C000.04331
T6C000.23622
%
T001
X00030250Y00150500
X00060250Y00150500
X00060250Y00160500
X00062750Y00050500
X00065250Y00135500
X00065250Y00173000
X00065250Y00203000
X00072750Y00050500
X00072750Y00093000
X00072750Y00108000
X00072750Y00118000
X00072750Y00123000
X00077750Y00178000
X00080250Y00068000
X00080250Y00078000
X00080250Y00093000
X00080250Y00110500
X00082750Y00193000
X00082750Y00203000
X00087750Y00093000
X00092750Y00123000
X00095250Y00193000
X00095250Y00203000
X00100250Y00160500
X00105250Y00135500
X00107750Y00170500
X00107750Y00178000
X00117750Y00170500
X00120250Y00110500
T002
X00007750Y00068000
X00007750Y00118000
X00032750Y00128000
X00057750Y00068000
X00057750Y00118000
X00105250Y00068000
X00105250Y00098000
X00115250Y00068000
X00115250Y00098000
X00117750Y00125500
X00117750Y00135500
X00117750Y00145500
X00117750Y00155500
T003
X00082750Y00050500
X00095250Y00050500
X00115250Y00050500
T004
X00105250Y00010500
X00105250Y00030500
T005
X00070250Y00013000
X00070250Y00036750
T006
X00027750Y00028000
X00027750Y00185500
M30
