%FSLAX35Y35*%
%MOIN*%
G04 EasyPC Gerber Version 18.0.9 Build 3640 *
%ADD99R,0.07000X0.07000*%
%ADD79R,0.11000X0.11000*%
%ADD100C,0.07000*%
%ADD97C,0.10843*%
%ADD98C,0.13000*%
%ADD96C,0.48244*%
X0Y0D02*
D02*
D79*
X105250Y10500D03*
Y30500D03*
D02*
D96*
X27750Y28000D03*
Y185500D03*
D02*
D97*
X7750Y68000D03*
Y118000D03*
X32750Y128000D03*
X57750Y68000D03*
Y118000D03*
X82750Y50500D03*
X95250D03*
X115250D03*
D02*
D98*
X70250Y13000D03*
Y36750D03*
D02*
D99*
X105250Y68000D03*
Y98000D03*
X115250Y68000D03*
Y98000D03*
X117750Y125500D03*
Y135500D03*
Y145500D03*
Y155500D03*
D02*
D100*
X30250Y150500D03*
X60250D03*
Y160500D03*
X62750Y50500D03*
X65250Y135500D03*
Y173000D03*
Y203000D03*
X72750Y50500D03*
Y93000D03*
Y108000D03*
Y118000D03*
Y123000D03*
X77750Y178000D03*
X80250Y68000D03*
Y78000D03*
Y93000D03*
Y110500D03*
X82750Y193000D03*
Y203000D03*
X87750Y93000D03*
X92750Y123000D03*
X95250Y193000D03*
Y203000D03*
X100250Y160500D03*
X105250Y135500D03*
X107750Y170500D03*
Y178000D03*
X117750Y170500D03*
X120250Y110500D03*
X0Y0D02*
M02*
